Case Study 1
…
Included with this evaluation are the provided CSVs of Beer and Brewery data. Please leave them in the same folder when running this file.

See Appendix for Raw Datasets

#import data
beers <- read.csv("Beers.csv",header = TRUE)
breweries <- read.csv("Breweries.csv",header = TRUE)

#1. How many breweries are present in each state? ## Brewery Counts by State Here we are taking the brewery dataset and sorting by the state abbreviation. We have sorted it for easier readability and comparison starting with state with most breweries: Colorado. Every state is represented by at least one brewery in this list as well as the Distric of Columbia.

breweries %>% 
  count(State,sort=TRUE)

## # A tibble: 51 x 2
##    State     n
##    <fct> <int>
##  1 " CO"    47
##  2 " CA"    39
##  3 " MI"    32
##  4 " OR"    29
##  5 " TX"    28
##  6 " PA"    25
##  7 " MA"    23
##  8 " WA"    23
##  9 " IN"    22
## 10 " WI"    20
## #  with 41 more rows
…
Median ABV

In order of Highest to Lowest ABVs

med_ABV <-Meds[order(-Meds$Median_ABV),] 
med_ABV

## # A tibble: 51 x 4
##    State Median_ABV Median_IBU fips 
##    <fct>      <dbl>      <dbl> <chr>
##  1 " DC"     0.0625       47.5 11   
##  2 " KY"     0.0625       31.5 21   
##  3 " MI"     0.062        35   26   
##  4 " NM"     0.062        51   35   
##  5 " WV"     0.062        57.5 54   
##  6 " CO"     0.0605       40   08   
##  7 " AL"     0.06         43   01   
##  8 " CT"     0.06         29   09   
##  9 " NV"     0.06         41   32   
## 10 " OK"     0.06         35   40   
## #  with 41 more rows
…
